{
    "books": [
        {
            "led_book_id": "LED00001",
            "book_install_status": "1 - Baixada",
            "book_install_progress": "100",
            "book_version": "1"
        },
        {
            "led_book_id": "LED00002",
            "book_install_status": "2 - Baixando",
            "book_install_progress": "97.56",
            "book_version": "10"
        },
        {
            "led_book_id": "LED00003",
            "book_install_status": "0 - Nova",
            "book_install_progress": "0",
            "book_version": "5"
        }
    ]
}